{
    "restApiRoot": "/api",
    "host": "0.0.0.0",
    "port": 3000,
    "remoting": {
        "context": false,
        "rest": {
            "handleErrors": true,
            "normalizeHttpPath": false,
            "xml": false
        },
        "json": {
            "strict": false,
            "limit": "100kb"
        },
        "urlencoded": {
            "extended": true,
            "limit": "100kb"
        },
        "cors": false
    },
    "legacyExplorer": false,
    "logoutSessionsOnSensitiveChanges": true
}